{
    "reason": {
        "name": "reason",
        "label": "Reasons",
        "singular_label": "Reason",
        "description": "",
        "public": "true",
        "publicly_queryable": "true",
        "show_ui": "true",
        "show_in_nav_menus": "true",
        "delete_with_user": "false",
        "show_in_rest": "true",
        "rest_base": "",
        "rest_controller_class": "",
        "has_archive": "false",
        "has_archive_string": "",
        "exclude_from_search": "false",
        "capability_type": "post",
        "hierarchical": "false",
        "rewrite": "true",
        "rewrite_slug": "",
        "rewrite_withfront": "true",
        "query_var": "true",
        "query_var_slug": "",
        "menu_position": "",
        "show_in_menu": "true",
        "show_in_menu_string": "",
        "menu_icon": "",
        "supports": [
            "title",
            "editor",
            "thumbnail"
        ],
        "taxonomies": [],
        "labels": {
            "menu_name": "",
            "all_items": "",
            "add_new": "",
            "add_new_item": "",
            "edit_item": "",
            "new_item": "",
            "view_item": "",
            "view_items": "",
            "search_items": "",
            "not_found": "",
            "not_found_in_trash": "",
            "parent_item_colon": "",
            "featured_image": "",
            "set_featured_image": "",
            "remove_featured_image": "",
            "use_featured_image": "",
            "archives": "",
            "insert_into_item": "",
            "uploaded_to_this_item": "",
            "filter_items_list": "",
            "items_list_navigation": "",
            "items_list": "",
            "attributes": "",
            "name_admin_bar": "",
            "item_published": "",
            "item_published_privately": "",
            "item_reverted_to_draft": "",
            "item_scheduled": "",
            "item_updated": ""
        },
        "custom_supports": ""
    },
    "teacher": {
        "name": "teacher",
        "label": "Teachers",
        "singular_label": "Teacher",
        "description": "",
        "public": "true",
        "publicly_queryable": "true",
        "show_ui": "true",
        "show_in_nav_menus": "true",
        "delete_with_user": "false",
        "show_in_rest": "true",
        "rest_base": "",
        "rest_controller_class": "",
        "has_archive": "false",
        "has_archive_string": "",
        "exclude_from_search": "false",
        "capability_type": "post",
        "hierarchical": "false",
        "rewrite": "true",
        "rewrite_slug": "",
        "rewrite_withfront": "true",
        "query_var": "true",
        "query_var_slug": "",
        "menu_position": "",
        "show_in_menu": "true",
        "show_in_menu_string": "",
        "menu_icon": "",
        "supports": [
            "title",
            "editor",
            "thumbnail"
        ],
        "taxonomies": [],
        "labels": {
            "menu_name": "",
            "all_items": "",
            "add_new": "",
            "add_new_item": "",
            "edit_item": "",
            "new_item": "",
            "view_item": "",
            "view_items": "",
            "search_items": "",
            "not_found": "",
            "not_found_in_trash": "",
            "parent_item_colon": "",
            "featured_image": "",
            "set_featured_image": "",
            "remove_featured_image": "",
            "use_featured_image": "",
            "archives": "",
            "insert_into_item": "",
            "uploaded_to_this_item": "",
            "filter_items_list": "",
            "items_list_navigation": "",
            "items_list": "",
            "attributes": "",
            "name_admin_bar": "",
            "item_published": "",
            "item_published_privately": "",
            "item_reverted_to_draft": "",
            "item_scheduled": "",
            "item_updated": ""
        },
        "custom_supports": ""
    },
    "reviewer": {
        "name": "reviewer",
        "label": "Reviewers",
        "singular_label": "Reviewer",
        "description": "",
        "public": "true",
        "publicly_queryable": "true",
        "show_ui": "true",
        "show_in_nav_menus": "true",
        "delete_with_user": "false",
        "show_in_rest": "true",
        "rest_base": "",
        "rest_controller_class": "",
        "has_archive": "false",
        "has_archive_string": "",
        "exclude_from_search": "false",
        "capability_type": "post",
        "hierarchical": "false",
        "rewrite": "true",
        "rewrite_slug": "",
        "rewrite_withfront": "true",
        "query_var": "true",
        "query_var_slug": "",
        "menu_position": "",
        "show_in_menu": "true",
        "show_in_menu_string": "",
        "menu_icon": "",
        "supports": [
            "title",
            "editor",
            "thumbnail"
        ],
        "taxonomies": [],
        "labels": {
            "menu_name": "",
            "all_items": "",
            "add_new": "",
            "add_new_item": "",
            "edit_item": "",
            "new_item": "",
            "view_item": "",
            "view_items": "",
            "search_items": "",
            "not_found": "",
            "not_found_in_trash": "",
            "parent_item_colon": "",
            "featured_image": "",
            "set_featured_image": "",
            "remove_featured_image": "",
            "use_featured_image": "",
            "archives": "",
            "insert_into_item": "",
            "uploaded_to_this_item": "",
            "filter_items_list": "",
            "items_list_navigation": "",
            "items_list": "",
            "attributes": "",
            "name_admin_bar": "",
            "item_published": "",
            "item_published_privately": "",
            "item_reverted_to_draft": "",
            "item_scheduled": "",
            "item_updated": ""
        },
        "custom_supports": ""
    },
    "course": {
        "name": "course",
        "label": "Courses",
        "singular_label": "\bCourse",
        "description": "",
        "public": "true",
        "publicly_queryable": "true",
        "show_ui": "true",
        "show_in_nav_menus": "true",
        "delete_with_user": "false",
        "show_in_rest": "true",
        "rest_base": "",
        "rest_controller_class": "",
        "has_archive": "false",
        "has_archive_string": "",
        "exclude_from_search": "false",
        "capability_type": "post",
        "hierarchical": "false",
        "rewrite": "true",
        "rewrite_slug": "",
        "rewrite_withfront": "true",
        "query_var": "true",
        "query_var_slug": "",
        "menu_position": "",
        "show_in_menu": "true",
        "show_in_menu_string": "",
        "menu_icon": "",
        "supports": [
            "title",
            "editor",
            "thumbnail"
        ],
        "taxonomies": [],
        "labels": {
            "menu_name": "",
            "all_items": "",
            "add_new": "",
            "add_new_item": "",
            "edit_item": "",
            "new_item": "",
            "view_item": "",
            "view_items": "",
            "search_items": "",
            "not_found": "",
            "not_found_in_trash": "",
            "parent_item_colon": "",
            "featured_image": "",
            "set_featured_image": "",
            "remove_featured_image": "",
            "use_featured_image": "",
            "archives": "",
            "insert_into_item": "",
            "uploaded_to_this_item": "",
            "filter_items_list": "",
            "items_list_navigation": "",
            "items_list": "",
            "attributes": "",
            "name_admin_bar": "",
            "item_published": "",
            "item_published_privately": "",
            "item_reverted_to_draft": "",
            "item_scheduled": "",
            "item_updated": ""
        },
        "custom_supports": ""
    },
    "package": {
        "name": "package",
        "label": "Packages",
        "singular_label": "Package",
        "description": "",
        "public": "true",
        "publicly_queryable": "true",
        "show_ui": "true",
        "show_in_nav_menus": "true",
        "delete_with_user": "false",
        "show_in_rest": "true",
        "rest_base": "",
        "rest_controller_class": "",
        "has_archive": "false",
        "has_archive_string": "",
        "exclude_from_search": "false",
        "capability_type": "post",
        "hierarchical": "false",
        "rewrite": "true",
        "rewrite_slug": "",
        "rewrite_withfront": "true",
        "query_var": "true",
        "query_var_slug": "",
        "menu_position": "",
        "show_in_menu": "true",
        "show_in_menu_string": "",
        "menu_icon": "",
        "supports": [
            "title",
            "editor",
            "thumbnail"
        ],
        "taxonomies": [],
        "labels": {
            "menu_name": "",
            "all_items": "",
            "add_new": "",
            "add_new_item": "",
            "edit_item": "",
            "new_item": "",
            "view_item": "",
            "view_items": "",
            "search_items": "",
            "not_found": "",
            "not_found_in_trash": "",
            "parent_item_colon": "",
            "featured_image": "",
            "set_featured_image": "",
            "remove_featured_image": "",
            "use_featured_image": "",
            "archives": "",
            "insert_into_item": "",
            "uploaded_to_this_item": "",
            "filter_items_list": "",
            "items_list_navigation": "",
            "items_list": "",
            "attributes": "",
            "name_admin_bar": "",
            "item_published": "",
            "item_published_privately": "",
            "item_reverted_to_draft": "",
            "item_scheduled": "",
            "item_updated": ""
        },
        "custom_supports": ""
    },
    "tin_tuc": {
        "name": "tin_tuc",
        "label": "News",
        "singular_label": "Tin T\u1ee9c",
        "description": "",
        "public": "true",
        "publicly_queryable": "true",
        "show_ui": "true",
        "show_in_nav_menus": "true",
        "delete_with_user": "false",
        "show_in_rest": "true",
        "rest_base": "",
        "rest_controller_class": "",
        "has_archive": "false",
        "has_archive_string": "",
        "exclude_from_search": "false",
        "capability_type": "post",
        "hierarchical": "false",
        "rewrite": "true",
        "rewrite_slug": "",
        "rewrite_withfront": "true",
        "query_var": "true",
        "query_var_slug": "",
        "menu_position": "",
        "show_in_menu": "true",
        "show_in_menu_string": "",
        "menu_icon": "",
        "supports": [
            "title",
            "editor",
            "thumbnail"
        ],
        "taxonomies": [],
        "labels": {
            "menu_name": "",
            "all_items": "",
            "add_new": "",
            "add_new_item": "",
            "edit_item": "",
            "new_item": "",
            "view_item": "",
            "view_items": "",
            "search_items": "",
            "not_found": "",
            "not_found_in_trash": "",
            "parent_item_colon": "",
            "featured_image": "",
            "set_featured_image": "",
            "remove_featured_image": "",
            "use_featured_image": "",
            "archives": "",
            "insert_into_item": "",
            "uploaded_to_this_item": "",
            "filter_items_list": "",
            "items_list_navigation": "",
            "items_list": "",
            "attributes": "",
            "name_admin_bar": "",
            "item_published": "",
            "item_published_privately": "",
            "item_reverted_to_draft": "",
            "item_scheduled": "",
            "item_updated": ""
        },
        "custom_supports": ""
    }
}